<svg xmlns="http://www.w3.org/2000/svg" width="64" height="64" viewBox="0 0 64 64">
  <path id="facebook" d="M64,32A32,32,0,1,0,32,64c.188,0,.375,0,.563-.013v-24.9H25.688V31.075h6.875v-5.9c0-6.837,4.175-10.562,10.275-10.562A55.847,55.847,0,0,1,49,14.925v7.15H44.8c-3.312,0-3.963,1.575-3.963,3.888v5.1h7.938l-1.037,8.012h-6.9V62.763A32.01,32.01,0,0,0,64,32Z" fill="#fff"/>
</svg>
